…
NCEAS has a helpful info sheet about working with CRS in R [here](https://www.nceas.ucsb.edu/sites/default/files/2020-04/OverviewCoordinateReferenceSystems.pdf) if you want to learn more.

What's the result of us creating this new object?

```r
bears_sf

## Simple feature collection with 9583 features and 4 fields
## geometry type:  POINT
## dimension:      XY
## bbox:           xmin: -158.9622 ymin: 70.0205 xmax: -140.4845 ymax: 75.33249
## geographic CRS: WGS 84
## # A tibble: 9,583 x 5
##     Bear Type  Date                LocationQuality             geometry
##  * <dbl> <chr> <dttm>              <chr>                    <POINT [°]>
##  1     1 GPS   2014-04-10 02:00:38 G               (-146.3468 70.39948)
##  2     1 Argos 2014-04-10 02:19:12 L3                   (-146.332 70.4)
##  3     1 Argos 2014-04-10 02:50:59 LB                 (-146.328 70.423)
##  4     1 Argos 2014-04-10 02:53:19 L1                 (-146.366 70.395)
##  5     1 GPS   2014-04-10 03:00:38 G               (-146.3469 70.39932)
##  6     1 GPS   2014-04-10 04:00:38 G               (-146.3455 70.39947)
##  7     1 Argos 2014-04-10 04:31:44 L3                 (-146.351 70.396)
##  8     1 Argos 2014-04-10 04:32:30 L2                 (-146.364 70.397)
##  9     1 GPS   2014-04-10 05:00:38 G               (-146.3459 70.39945)
## 10     1 GPS   2014-04-10 08:00:01 G               (-146.3419 70.40024)
## # ... with 9,573 more rows
```
…
